{
  "href" : "https://api.spotify.com/v1/users/124164328/playlists?offset=5&limit=10",
  "items" : [ {
    "collaborative" : false,
    "description" : "",
    "external_urls" : {
      "spotify" : "https://open.spotify.com/playlist/6Thx8vWBR8qAQYS9n0iBkq"
    },
    "href" : "https://api.spotify.com/v1/playlists/6Thx8vWBR8qAQYS9n0iBkq",
    "id" : "6Thx8vWBR8qAQYS9n0iBkq",
    "images" : [ {
      "height" : 640,
      "url" : "https://mosaic.scdn.co/640/ab67616d0000b27307e5b8059d61449a42108af9ab67616d0000b2731624590458126fc8b8c64c2fab67616d0000b27350a3147b4edd7701a876c6ceab67616d0000b273cb76604d9c5963544cf5be64",
      "width" : 640
    }, {
      "height" : 300,
      "url" : "https://mosaic.scdn.co/300/ab67616d0000b27307e5b8059d61449a42108af9ab67616d0000b2731624590458126fc8b8c64c2fab67616d0000b27350a3147b4edd7701a876c6ceab67616d0000b273cb76604d9c5963544cf5be64",
      "width" : 300
    }, {
      "height" : 60,
      "url" : "https://mosaic.scdn.co/60/ab67616d0000b27307e5b8059d61449a42108af9ab67616d0000b2731624590458126fc8b8c64c2fab67616d0000b27350a3147b4edd7701a876c6ceab67616d0000b273cb76604d9c5963544cf5be64",
      "width" : 60
    } ],
    "name" : "National Anthem",
    "owner" : {
      "display_name" : "Yisheng Jiang",
      "external_urls" : {
        "spotify" : "https://open.spotify.com/user/124164328"
      },
      "href" : "https://api.spotify.com/v1/users/124164328",
      "id" : "124164328",
      "type" : "user",
      "uri" : "spotify:user:124164328"
    },
    "primary_color" : null,
    "public" : true,
    "snapshot_id" : "NixkZTg1ZjM5Nzg0NzFmNzA5MTg0N2EzYjBkMmZiODdjZjk2NDFlM2Qy",
    "tracks" : {
      "href" : "https://api.spotify.com/v1/playlists/6Thx8vWBR8qAQYS9n0iBkq/tracks",
      "total" : 4
    },
    "type" : "playlist",
    "uri" : "spotify:playlist:6Thx8vWBR8qAQYS9n0iBkq"
  }, {
    "collaborative" : false,
    "description" : "Minimalism, electronica and modern classical to concentrate to.",
    "external_urls" : {
      "spotify" : "https://open.spotify.com/playlist/37i9dQZF1DX3PFzdbtx1Us"
    },
    "href" : "https://api.spotify.com/v1/playlists/37i9dQZF1DX3PFzdbtx1Us",
    "id" : "37i9dQZF1DX3PFzdbtx1Us",
    "images" : [ {
      "height" : null,
      "url" : "https://i.scdn.co/image/ab67706f000000033466e2ac76e504f4131af598",
      "width" : null
    } ],
    "name" : "Music For Concentration",
    "owner" : {
      "display_name" : "Spotify",
      "external_urls" : {
        "spotify" : "https://open.spotify.com/user/spotify"
      },
      "href" : "https://api.spotify.com/v1/users/spotify",
      "id" : "spotify",
      "type" : "user",
      "uri" : "spotify:user:spotify"
    },
    "primary_color" : null,
    "public" : false,
    "snapshot_id" : "MTU4NjM0MzA5MiwwMDAwMDA0MjAwMDAwMTcxNTk2YWExYTYwMDAwMDE3MTU5NmE4NDRj",
    "tracks" : {
      "href" : "https://api.spotify.com/v1/playlists/37i9dQZF1DX3PFzdbtx1Us/tracks",
      "total" : 90
    },
    "type" : "playlist",
    "uri" : "spotify:playlist:37i9dQZF1DX3PFzdbtx1Us"
  }, {
    "collaborative" : false,
    "description" : "Your weekly mixtape of fresh music. Enjoy new music and deep cuts picked for you. Updates every Monday.",
    "external_urls" : {
      "spotify" : "https://open.spotify.com/playlist/37i9dQZEVXcCA4p0bgAqEP"
    },
    "href" : "https://api.spotify.com/v1/playlists/37i9dQZEVXcCA4p0bgAqEP",
    "id" : "37i9dQZEVXcCA4p0bgAqEP",
    "images" : [ {
      "height" : null,
      "url" : "https://newjams-images.scdn.co/v2/discover-weekly/d-Lw397Oyx5HLO1G6hOTk4n6JhepknGK17CRLt0MyNCwaC1lRUgBv7iXSHpw9oiVQ9iYARcKAek3eUb3zZisXLTp-r5BcjqoqV2b7lN_9DeiUtKuzqaHVyY1IYSpcYfuSR8UZnRqATo5CUiqAP0auVLI6Oijt4Y313UQs5lh0IBnaKG2XEu9tUpePUMhYuYx7QC0-5h1S8WkMlKBkGcZUm4YctEpIialoZ2TcQmpIsdM4dSyyQfCLJ4tAAW8Cx2OnWNXosQiY5jEBCVz1T0HbM8rTvsvTKUDWSu2aTPYfcTxQHFyovcdwEm5FVI7_-87JB8xXwWykU858Fx2T22TeFi8l_RQhTzsH60mpEsJZFk=/MjM6NzQ6NTBUMzAtOTAtMA==/default",
      "width" : null
    } ],
    "name" : "Discover Weekly",
    "owner" : {
      "display_name" : "Spotify",
      "external_urls" : {
        "spotify" : "https://open.spotify.com/user/spotify"
      },
      "href" : "https://api.spotify.com/v1/users/spotify",
      "id" : "spotify",
      "type" : "user",
      "uri" : "spotify:user:spotify"
    },
    "primary_color" : null,
    "public" : false,
    "snapshot_id" : "MjY2MjcwNDAsMDAwMDAwMDAwNmRlYzYzMGZjYmNhNWMzZjU5YWY2NDg5ZGY4NDUwYw==",
    "tracks" : {
      "href" : "https://api.spotify.com/v1/playlists/37i9dQZEVXcCA4p0bgAqEP/tracks",
      "total" : 30
    },
    "type" : "playlist",
    "uri" : "spotify:playlist:37i9dQZEVXcCA4p0bgAqEP"
  }, {
    "collaborative" : false,
    "description" : "",
    "external_urls" : {
      "spotify" : "https://open.spotify.com/playlist/41sHrdW8GzDRTcz7f4WH09"
    },
    "href" : "https://api.spotify.com/v1/playlists/41sHrdW8GzDRTcz7f4WH09",
    "id" : "41sHrdW8GzDRTcz7f4WH09",
    "images" : [ {
      "height" : 640,
      "url" : "https://mosaic.scdn.co/640/ab67616d0000b273346a5742374ab4cf9ed32deeab67616d0000b2735c9890c0456a3719eeecd8aaab67616d0000b273b9ff0a5f40d3406aed5e5e3bab67616d0000b273fe6a98e875958c7d7080584e",
      "width" : 640
    }, {
      "height" : 300,
      "url" : "https://mosaic.scdn.co/300/ab67616d0000b273346a5742374ab4cf9ed32deeab67616d0000b2735c9890c0456a3719eeecd8aaab67616d0000b273b9ff0a5f40d3406aed5e5e3bab67616d0000b273fe6a98e875958c7d7080584e",
      "width" : 300
    }, {
      "height" : 60,
      "url" : "https://mosaic.scdn.co/60/ab67616d0000b273346a5742374ab4cf9ed32deeab67616d0000b2735c9890c0456a3719eeecd8aaab67616d0000b273b9ff0a5f40d3406aed5e5e3bab67616d0000b273fe6a98e875958c7d7080584e",
      "width" : 60
    } ],
    "name" : "Cry Me a River – Justin Timberlake",
    "owner" : {
      "display_name" : "Yisheng Jiang",
      "external_urls" : {
        "spotify" : "https://open.spotify.com/user/124164328"
      },
      "href" : "https://api.spotify.com/v1/users/124164328",
      "id" : "124164328",
      "type" : "user",
      "uri" : "spotify:user:124164328"
    },
    "primary_color" : null,
    "public" : true,
    "snapshot_id" : "MTMsYmQ2NTU4NzEyZTI2YjBkYWI4ZmE5ZTg4ODYwZDVhNmY3ZDk2Y2RmMA==",
    "tracks" : {
      "href" : "https://api.spotify.com/v1/playlists/41sHrdW8GzDRTcz7f4WH09/tracks",
      "total" : 11
    },
    "type" : "playlist",
    "uri" : "spotify:playlist:41sHrdW8GzDRTcz7f4WH09"
  }, {
    "collaborative" : false,
    "description" : "Essential tracks from the decade that catapulted electronic music, hip hop and indie rock into the mainstream.",
    "external_urls" : {
      "spotify" : "https://open.spotify.com/playlist/37i9dQZF1DX4o1oenSJRJd"
    },
    "href" : "https://api.spotify.com/v1/playlists/37i9dQZF1DX4o1oenSJRJd",
    "id" : "37i9dQZF1DX4o1oenSJRJd",
    "images" : [ {
      "height" : null,
      "url" : "https://i.scdn.co/image/ab67706f00000003320f20022a9b6a6e55204a30",
      "width" : null
    } ],
    "name" : "All Out 00s",
    "owner" : {
      "display_name" : "Spotify",
      "external_urls" : {
        "spotify" : "https://open.spotify.com/user/spotify"
      },
      "href" : "https://api.spotify.com/v1/users/spotify",
      "id" : "spotify",
      "type" : "user",
      "uri" : "spotify:user:spotify"
    },
    "primary_color" : null,
    "public" : true,
    "snapshot_id" : "MTU5ODIyOTg3NSwwMDAwMDAwMGQ0MWQ4Y2Q5OGYwMGIyMDRlOTgwMDk5OGVjZjg0Mjdl",
    "tracks" : {
      "href" : "https://api.spotify.com/v1/playlists/37i9dQZF1DX4o1oenSJRJd/tracks",
      "total" : 100
    },
    "type" : "playlist",
    "uri" : "spotify:playlist:37i9dQZF1DX4o1oenSJRJd"
  }, {
    "collaborative" : false,
    "description" : "",
    "external_urls" : {
      "spotify" : "https://open.spotify.com/playlist/0By5xD0RNG4paJVDVHdje1"
    },
    "href" : "https://api.spotify.com/v1/playlists/0By5xD0RNG4paJVDVHdje1",
    "id" : "0By5xD0RNG4paJVDVHdje1",
    "images" : [ {
      "height" : 640,
      "url" : "https://mosaic.scdn.co/640/ab67616d0000b27319d85a472f328a6ed9b704cfab67616d0000b273b254ca0983d65ede8e3d2f7aab67616d0000b273bf20604ae28256705ee864c2ab67616d0000b273c2dbca86dcf3a85003ac9502",
      "width" : 640
    }, {
      "height" : 300,
      "url" : "https://mosaic.scdn.co/300/ab67616d0000b27319d85a472f328a6ed9b704cfab67616d0000b273b254ca0983d65ede8e3d2f7aab67616d0000b273bf20604ae28256705ee864c2ab67616d0000b273c2dbca86dcf3a85003ac9502",
      "width" : 300
    }, {
      "height" : 60,
      "url" : "https://mosaic.scdn.co/60/ab67616d0000b27319d85a472f328a6ed9b704cfab67616d0000b273b254ca0983d65ede8e3d2f7aab67616d0000b273bf20604ae28256705ee864c2ab67616d0000b273c2dbca86dcf3a85003ac9502",
      "width" : 60
    } ],
    "name" : "Feel Good ",
    "owner" : {
      "display_name" : "Yisheng Jiang",
      "external_urls" : {
        "spotify" : "https://open.spotify.com/user/124164328"
      },
      "href" : "https://api.spotify.com/v1/users/124164328",
      "id" : "124164328",
      "type" : "user",
      "uri" : "spotify:user:124164328"
    },
    "primary_color" : null,
    "public" : true,
    "snapshot_id" : "NjQsYzBkNDJlMGJjMGJkNTRmYzI4YTVhZjc2ZDZmOGJlMDM2ZmUxNGYxNQ==",
    "tracks" : {
      "href" : "https://api.spotify.com/v1/playlists/0By5xD0RNG4paJVDVHdje1/tracks",
      "total" : 81
    },
    "type" : "playlist",
    "uri" : "spotify:playlist:0By5xD0RNG4paJVDVHdje1"
  }, {
    "collaborative" : false,
    "description" : "",
    "external_urls" : {
      "spotify" : "https://open.spotify.com/playlist/6c1iif9QfqlJhw49skwmCr"
    },
    "href" : "https://api.spotify.com/v1/playlists/6c1iif9QfqlJhw49skwmCr",
    "id" : "6c1iif9QfqlJhw49skwmCr",
    "images" : [ {
      "height" : 640,
      "url" : "https://mosaic.scdn.co/640/ab67616d0000b27352667a927da106f60947413aab67616d0000b273577da96e70c12ecbebea9614ab67616d0000b273609ec673227f3fb04da35f40ab67616d0000b273df5c337a697ce3134290eac9",
      "width" : 640
    }, {
      "height" : 300,
      "url" : "https://mosaic.scdn.co/300/ab67616d0000b27352667a927da106f60947413aab67616d0000b273577da96e70c12ecbebea9614ab67616d0000b273609ec673227f3fb04da35f40ab67616d0000b273df5c337a697ce3134290eac9",
      "width" : 300
    }, {
      "height" : 60,
      "url" : "https://mosaic.scdn.co/60/ab67616d0000b27352667a927da106f60947413aab67616d0000b273577da96e70c12ecbebea9614ab67616d0000b273609ec673227f3fb04da35f40ab67616d0000b273df5c337a697ce3134290eac9",
      "width" : 60
    } ],
    "name" : "Starred",
    "owner" : {
      "display_name" : "Yisheng Jiang",
      "external_urls" : {
        "spotify" : "https://open.spotify.com/user/124164328"
      },
      "href" : "https://api.spotify.com/v1/users/124164328",
      "id" : "124164328",
      "type" : "user",
      "uri" : "spotify:user:124164328"
    },
    "primary_color" : null,
    "public" : false,
    "snapshot_id" : "MiwxOWY2NDAyMGUxNjEwZGIxZWU3MWQzYjhjNjJjOTQ5OGEyNDk0MTNl",
    "tracks" : {
      "href" : "https://api.spotify.com/v1/playlists/6c1iif9QfqlJhw49skwmCr/tracks",
      "total" : 21
    },
    "type" : "playlist",
    "uri" : "spotify:playlist:6c1iif9QfqlJhw49skwmCr"
  }, {
    "collaborative" : false,
    "description" : "",
    "external_urls" : {
      "spotify" : "https://open.spotify.com/playlist/1ZSGautkUpYJTOo6TfHoXi"
    },
    "href" : "https://api.spotify.com/v1/playlists/1ZSGautkUpYJTOo6TfHoXi",
    "id" : "1ZSGautkUpYJTOo6TfHoXi",
    "images" : [ {
      "height" : 640,
      "url" : "https://mosaic.scdn.co/640/ab67616d0000b2731e9a057052d59004caf47e22ab67616d0000b2739b19c107109de740bad72df5ab67616d0000b273c08d5fa5c0f1a834acef5100ab67616d0000b273eab40fc794b88b9d1e012578",
      "width" : 640
    }, {
      "height" : 300,
      "url" : "https://mosaic.scdn.co/300/ab67616d0000b2731e9a057052d59004caf47e22ab67616d0000b2739b19c107109de740bad72df5ab67616d0000b273c08d5fa5c0f1a834acef5100ab67616d0000b273eab40fc794b88b9d1e012578",
      "width" : 300
    }, {
      "height" : 60,
      "url" : "https://mosaic.scdn.co/60/ab67616d0000b2731e9a057052d59004caf47e22ab67616d0000b2739b19c107109de740bad72df5ab67616d0000b273c08d5fa5c0f1a834acef5100ab67616d0000b273eab40fc794b88b9d1e012578",
      "width" : 60
    } ],
    "name" : "rapmusic",
    "owner" : {
      "display_name" : "Yisheng Jiang",
      "external_urls" : {
        "spotify" : "https://open.spotify.com/user/124164328"
      },
      "href" : "https://api.spotify.com/v1/users/124164328",
      "id" : "124164328",
      "type" : "user",
      "uri" : "spotify:user:124164328"
    },
    "primary_color" : null,
    "public" : true,
    "snapshot_id" : "MTUxLDc0ZWFjYmI2ZTI0NjE4ZmViMjY0MDNkMGY3ZjA5MjY5MGFjYzZjMTg=",
    "tracks" : {
      "href" : "https://api.spotify.com/v1/playlists/1ZSGautkUpYJTOo6TfHoXi/tracks",
      "total" : 73
    },
    "type" : "playlist",
    "uri" : "spotify:playlist:1ZSGautkUpYJTOo6TfHoXi"
  }, {
    "collaborative" : false,
    "description" : "",
    "external_urls" : {
      "spotify" : "https://open.spotify.com/playlist/1lJxFioCN9gBTynSZUVW6e"
    },
    "href" : "https://api.spotify.com/v1/playlists/1lJxFioCN9gBTynSZUVW6e",
    "id" : "1lJxFioCN9gBTynSZUVW6e",
    "images" : [ {
      "height" : 640,
      "url" : "https://i.scdn.co/image/ab67616d0000b273d3a54bd30367d97d61899bab",
      "width" : 640
    } ],
    "name" : "Liked from Radio",
    "owner" : {
      "display_name" : "Yisheng Jiang",
      "external_urls" : {
        "spotify" : "https://open.spotify.com/user/124164328"
      },
      "href" : "https://api.spotify.com/v1/users/124164328",
      "id" : "124164328",
      "type" : "user",
      "uri" : "spotify:user:124164328"
    },
    "primary_color" : null,
    "public" : true,
    "snapshot_id" : "NSw2MzczMDJkNGUwOTkxODg3NTk5YjZlZGE0OTRmZmVlNDU0YjBjMzli",
    "tracks" : {
      "href" : "https://api.spotify.com/v1/playlists/1lJxFioCN9gBTynSZUVW6e/tracks",
      "total" : 3
    },
    "type" : "playlist",
    "uri" : "spotify:playlist:1lJxFioCN9gBTynSZUVW6e"
  }, {
    "collaborative" : false,
    "description" : "",
    "external_urls" : {
      "spotify" : "https://open.spotify.com/playlist/13dioxoNsAF6Xu9lIIG2vQ"
    },
    "href" : "https://api.spotify.com/v1/playlists/13dioxoNsAF6Xu9lIIG2vQ",
    "id" : "13dioxoNsAF6Xu9lIIG2vQ",
    "images" : [ {
      "height" : 640,
      "url" : "https://i.scdn.co/image/ab67616d0000b273df5c337a697ce3134290eac9",
      "width" : 640
    } ],
    "name" : "iTunes",
    "owner" : {
      "display_name" : "Yisheng Jiang",
      "external_urls" : {
        "spotify" : "https://open.spotify.com/user/124164328"
      },
      "href" : "https://api.spotify.com/v1/users/124164328",
      "id" : "124164328",
      "type" : "user",
      "uri" : "spotify:user:124164328"
    },
    "primary_color" : null,
    "public" : false,
    "snapshot_id" : "NSwwOWU1ZmRiN2Y2ZDkyZjdhZWVmZTQxMTA1ZGQwZWZlMzYwNDI5Mzhh",
    "tracks" : {
      "href" : "https://api.spotify.com/v1/playlists/13dioxoNsAF6Xu9lIIG2vQ/tracks",
      "total" : 3
    },
    "type" : "playlist",
    "uri" : "spotify:playlist:13dioxoNsAF6Xu9lIIG2vQ"
  } ],
  "limit" : 10,
  "next" : "https://api.spotify.com/v1/users/124164328/playlists?offset=15&limit=10",
  "offset" : 5,
  "previous" : "https://api.spotify.com/v1/users/124164328/playlists?offset=0&limit=10",
  "total" : 17
}